19200154_Advanced R_Final Project
…
##Question 6 Focus only on the rows where log-earth radius and log-period have no missing values, and perform kmeans with four clusters on these two columns.

exo_kmeans = exo %>% 
  filter(!is.na(period))%>%
  filter(!is.na(earth_radius))%>%
  mutate(earth_radius = log(earth_radius),
         period = log(period))
kmeans_data = exo_kmeans%>%
  select(earth_radius,period)

kmeans_data

## # A tibble: 2,732 x 2
##    earth_radius period
##           <dbl>  <dbl>
##  1       -0.503 -1.73 
##  2        0.450  1.43 
##  3       -0.229  1.85 
##  4        2.24   2.96 
##  5        2.22   3.66 
##  6        0.499  0.466
##  7        0.766  2.91 
##  8        2.63   1.22 
##  9        0.656  1.21 
## 10        1.05   1.75 
## # ... with 2,722 more rows
…
